<?xml version="1.0" encoding="UTF-8"?>
<svg width="48px" height="48px" viewBox="0 0 48 48" version="1.1" xmlns="http://www.w3.org/2000/svg" xmlns:xlink="http://www.w3.org/1999/xlink">
    <defs>
        <circle id="path-1" cx="24" cy="24" r="24"></circle>
    </defs>
    <g id="15.06" stroke="none" stroke-width="1" fill="none" fill-rule="evenodd">
        <g id="Чат-(групповой)" transform="translate(-639.000000, -477.000000)">
            <g id="chating" transform="translate(607.000000, 160.000000)">
                <g id="mess-out" transform="translate(32.000000, 317.000000)">
                    <g id="Врач">
                        <mask id="mask-2" fill="white">
                            <use xlink:href="#path-1"></use>
                        </mask>
                        <use id="Oval-2" fill="#F5F9FA" xlink:href="#path-1"></use>
                        <g opacity="0.5" mask="url(#mask-2)" id="Group">
                            <g transform="translate(5.000000, 6.000000)">
                                <g transform="translate(19.000000, 22.000000) scale(-1, 1) rotate(-180.000000) translate(-19.000000, -22.000000) ">
                                    <path d="M16.9291553,43.9392744 C14.8928247,43.6876972 13.9264305,43.1932177 12.9772934,41.9006309 C12.5803815,41.3541009 12.3991826,41.1979495 11.7347866,40.8509464 C10.6821072,40.3044164 10.2334242,39.384858 10.0263397,37.3548896 C9.92279746,36.4006309 10.0263397,34.431388 10.2334242,33.3470032 L10.3455949,32.7570978 L10.0867393,32.6963722 C9.71571299,32.6182965 9.20663034,32.0630915 9.03405995,31.5339117 C8.77520436,30.7444795 8.99954587,28.3588328 9.42234332,27.387224 C9.68982743,26.7886435 10.1730245,26.1900631 10.6217075,25.8951104 C11.0013624,25.6435331 11.044505,25.5828076 11.2257039,24.9582019 C11.8297003,22.8935331 13.236149,20.9850158 15.0481381,19.7618297 C15.6866485,19.3367508 17.1621253,18.694795 17.904178,18.5212934 C18.3701181,18.4171924 19.7161671,18.4171924 20.1821072,18.5212934 C20.9327884,18.694795 22.3996367,19.3367508 23.0381471,19.7618297 C24.8587648,20.9936909 26.3256131,22.9802839 26.8174387,24.8801262 C26.9468665,25.3832808 27.0331517,25.5307571 27.3524069,25.8343849 C28.5603996,26.95347 28.7502271,27.3264984 29.0090827,28.9921136 C29.1989101,30.25 29.2247956,31.0654574 29.0953678,31.5512618 C28.9745686,31.9850158 28.517257,32.5662461 28.1721163,32.7397476 C27.9132607,32.8698738 27.8873751,32.9132492 27.8873751,33.2862776 C27.8873751,33.5118297 27.9650318,34.0149842 28.068574,34.4140379 C28.3188011,35.4290221 28.3878292,37.3375394 28.2066303,38.2310726 C27.7493188,40.4345426 26.4291553,42.0134069 24.2547684,42.9416404 C23.3487738,43.3320189 22.3392371,43.6356467 21.3728429,43.8091483 C20.4582198,43.9739748 17.8610354,44.0520505 16.9291553,43.9392744 Z M20.2942779,41.9873817 C21.3642144,41.8399054 21.9336966,41.7011041 22.969119,41.3107256 C23.9872843,40.920347 24.6171662,40.5299685 25.1693915,39.931388 C26.2652134,38.7429022 26.5585831,37.2247634 26.1702997,34.7783912 C25.859673,32.8178233 25.7906449,32.2452681 25.842416,31.9156151 C25.9200727,31.464511 26.291099,31.1001577 26.7570391,31.0394322 C27.0417802,30.9960568 27.1194369,30.9526814 27.171208,30.7705047 C27.2747502,30.3280757 27.0590372,28.3241325 26.8433243,27.7862776 C26.7915531,27.6561514 26.4550409,27.3091483 26.1012716,27.0141956 C25.3764759,26.398265 25.1176203,26.0078864 24.9277929,25.2358044 C24.6516803,24.1340694 24.0735695,23.1364353 23.1244323,22.1214511 C22.3823797,21.3233438 21.9336966,21.0197161 20.8119891,20.5512618 C20.0009083,20.2216088 19.6902816,20.1435331 19.1294278,20.1001577 C18.4995459,20.0654574 18.352861,20.0914826 17.5072661,20.3777603 C16.989555,20.5512618 16.2906449,20.8548896 15.9541326,21.0544164 C14.4700272,21.9219243 13.3138056,23.5007886 12.7960945,25.3485804 C12.5372389,26.3115142 12.3819255,26.5630915 11.8469573,26.9274448 C11.1825613,27.3785489 10.9237057,27.8730284 10.7597639,28.9921136 C10.6217075,29.9116719 10.6044505,30.4061514 10.6821072,30.8312303 C10.7338783,31.0654574 10.7770209,31.1001577 11.027248,31.1001577 C11.4414169,31.1001577 11.726158,31.2563091 11.941871,31.6033123 C12.0971844,31.8635647 12.1144414,31.9850158 12.0712988,32.6443218 C12.0454133,33.0607256 11.9591281,33.6419558 11.8814714,33.9455836 C11.7779292,34.3446372 11.7347866,34.9171924 11.726158,36.2011041 C11.7175295,37.7192429 11.7347866,37.9621451 11.8900999,38.387224 C12.0454133,38.829653 12.1058129,38.8817035 12.5631244,39.1159306 C13.0980926,39.3935331 13.9523161,40.1829653 14.3837421,40.8162461 C14.5304269,41.033123 14.8237965,41.3107256 15.030881,41.4408517 C15.9800182,42.022082 18.2752044,42.2649842 20.2942779,41.9873817 Z" id="Shape" fill="#344758" fill-rule="nonzero"></path>
                                    <path d="M11.061762,18.2957413 C9.97456857,17.9487382 9.31880109,17.5757098 9.13760218,17.2026814 C9.00817439,16.9337539 8.99091735,16.8209779 9.07720254,16.5780757 C9.29291553,15.9014196 9.80199818,15.8059937 10.8978202,16.2223975 L11.5622162,16.4826498 L13.5208901,14.5741325 C17.4468665,10.7484227 18.9482289,9.32570978 19.0603996,9.32570978 C19.1207993,9.32570978 20.095822,10.2192429 21.2175295,11.3036278 C22.3478656,12.3880126 24.0045413,13.9929022 24.9105359,14.8604101 C25.8079019,15.727918 26.5930972,16.4392744 26.6534968,16.4392744 C26.8174387,16.4392744 28.2238874,15.840694 28.5690282,15.623817 C28.7415985,15.511041 28.9659401,15.4069401 29.0781108,15.3809148 C29.3714805,15.3028391 29.8374205,15.4676656 29.9927339,15.7018927 C30.1653043,15.9621451 30.1739328,16.5173502 30.0013624,16.7602524 C29.7942779,17.055205 26.9986376,18.3564669 26.291099,18.477918 C26.0495005,18.5212934 25.9028156,18.3998423 24.1253406,16.6821767 C23.0726612,15.6671924 21.4936421,14.1403785 20.6049046,13.2815457 L19,11.7373817 L17.2138965,13.4550473 C16.2302452,14.409306 14.6512262,15.9361199 13.702089,16.8556782 C12.7443233,17.7665615 11.9073569,18.5212934 11.8383288,18.5126183 C11.7693006,18.5039432 11.4155313,18.4085174 11.061762,18.2957413 Z" id="Shape" fill="#344758" fill-rule="nonzero"></path>
                                    <path d="M7.2479564,16.4652997 C6.9804723,16.2917981 6.83378747,16.0141956 6.83378747,15.6585174 C6.83378747,15.3375394 7.22207084,13.3335962 7.38601272,12.7783912 L7.51544051,12.3706625 L7.13578565,12.1537855 C6.64396004,11.8588328 6.15213442,11.2862776 5.77247956,10.557571 C5.00454133,9.08280757 4.98728429,8.28470032 5.66030881,5.48264984 C5.9191644,4.38958991 6.1435059,3.4873817 6.16076294,3.47003155 C6.20390554,3.41798107 8.93914623,4.08596215 9.13760218,4.19006309 C9.71571299,4.50236593 9.61217075,5.44794953 8.97366031,5.72555205 C8.76657584,5.81230284 8.60263397,5.80362776 8.11080836,5.70820189 C7.77429609,5.63880126 7.48092643,5.61277603 7.44641235,5.65615142 C7.30835604,5.80362776 6.88555858,7.920347 6.8941871,8.38012618 C6.92007266,9.70741325 8.15395095,10.9219243 9.46548592,10.9132492 C10.4491371,10.9045741 11.4241599,10.3493691 11.8124432,9.56861199 C11.924614,9.36041009 12.1316985,8.66640379 12.2783833,8.03312303 C12.5803815,6.74053628 12.58901,6.77523659 11.9332425,6.67981073 C11.4500454,6.61041009 11.0962761,6.42823344 10.9754768,6.21135647 C10.6821072,5.65615142 11.0790191,4.90141956 11.6571299,4.90141956 C11.9159855,4.90141956 14.5908265,5.47397476 14.6598547,5.53470032 C14.6684832,5.54337539 14.4441417,6.53233438 14.1594005,7.72082019 C13.8142598,9.18690852 13.5640327,10.0630915 13.3828338,10.4274448 C12.7702089,11.6506309 11.4500454,12.544164 9.97456857,12.7263407 L9.18074478,12.8304416 L9.05131698,13.3943218 C8.97366031,13.7066246 8.82697548,14.4353312 8.73206176,15.0078864 C8.51634877,16.1963722 8.47320618,16.3004732 8.1280654,16.4826498 C7.80881017,16.6474763 7.54132607,16.6474763 7.2479564,16.4652997 Z" id="Shape" fill="#344758" fill-rule="nonzero"></path>
                                    <path d="M31.4595822,16.0315457 C31.0885559,15.9621451 30.8469573,15.5630915 30.6226158,14.6608833 C30.510445,14.1837539 30.2429609,13.3682965 30.044505,12.8564669 C29.6993642,11.9542587 29.6734787,11.9195584 29.4663942,11.9716088 C29.1212534,12.0583596 27.9736603,11.8501577 27.4732062,11.6072555 C26.1530427,10.9826498 25.2988193,9.30835962 25.5576748,7.82492114 C25.9028156,5.84700315 27.7493188,4.51104101 29.7252498,4.81466877 C30.9504995,4.99684543 31.82198,5.65615142 32.3655767,6.80993691 C32.6589464,7.42586751 32.6762035,7.5126183 32.6762035,8.32807571 C32.6762035,9.12618297 32.6503179,9.24763407 32.4000908,9.77681388 C32.253406,10.0977918 31.9427793,10.557571 31.7270663,10.7917981 L31.3215259,11.2255521 L31.6666667,12.1190852 C32.0894641,13.194795 32.4518619,14.4179811 32.5208901,14.9818612 C32.5812897,15.4850158 32.4173479,15.7886435 31.9859219,15.9708202 C31.82198,16.0402208 31.6752952,16.0835962 31.6666667,16.0835962 C31.6494096,16.0749211 31.5544959,16.0488959 31.4595822,16.0315457 Z M29.9582198,9.92429022 C30.8814714,9.40378549 31.157584,8.04179811 30.510445,7.19164038 C30.0790191,6.61041009 29.0263397,6.36750789 28.3533152,6.6884858 C27.9391462,6.88801262 27.4818347,7.43454259 27.3696639,7.86829653 C27.1280654,8.7444795 27.4904632,9.53391167 28.3188011,9.95899054 C28.8796549,10.2539432 29.397366,10.2365931 29.9582198,9.92429022 Z" id="Shape" fill="#344758" fill-rule="nonzero"></path>
                                    <path d="M5.19436876,15.2507886 C5.1253406,15.2247634 4.52134423,14.8257098 3.85694823,14.3659306 C1.65667575,12.8564669 0.612624886,11.5985804 0.18119891,9.95899054 C0.00862851953,9.32570978 -8.9338259e-17,9.07413249 0.00862851953,5.75157729 C0.0172570391,3.80835962 0.0603996367,2.09936909 0.103542234,1.95189274 C0.310626703,1.22318612 0.923251589,0.520504732 1.64804723,0.182176656 L2.04495913,0 L19,0 L35.9550409,0 L36.3519528,0.190851735 C37.0853769,0.529179811 37.6893733,1.22318612 37.8964578,1.95189274 C37.9396004,2.09936909 37.982743,3.77365931 37.9913715,5.6648265 C38.0086285,9.58596215 37.9741144,9.91561514 37.3873751,11.1041009 C36.9904632,11.9022082 36.239782,12.7783912 35.2475023,13.5764984 C34.3415077,14.3138801 34.2379655,14.3746057 33.8669391,14.3746057 C33.4268847,14.3746057 33.0644868,13.9755521 33.0644868,13.5070978 C33.0644868,13.1340694 33.1939146,12.9952681 34.2034514,12.205836 C34.9972752,11.5812303 35.6012716,10.8958991 35.9032698,10.2539432 C36.2656676,9.50788644 36.3433243,8.7011041 36.3433243,5.42192429 C36.3433243,2.35094637 36.3174387,2.22082019 35.7393279,1.93454259 C35.4545867,1.78706625 34.479564,1.77839117 19.1294278,1.77839117 C7.94686649,1.77839117 2.71798365,1.8044164 2.49364214,1.87381703 C1.86376022,2.04731861 1.8551317,2.06466877 1.8119891,5.6648265 C1.76021798,9.06545741 1.79473206,9.50788644 2.14850136,10.2712934 C2.53678474,11.0954259 4.04677566,12.4921136 5.64305177,13.5157729 C5.91053588,13.6892744 6.17801998,13.9061514 6.22116258,14.0015773 C6.55767484,14.626183 5.84150772,15.4936909 5.19436876,15.2507886 Z" id="Shape" fill="#344758" fill-rule="nonzero"></path>
                                </g>
                            </g>
                        </g>
                    </g>
                </g>
            </g>
        </g>
    </g>
</svg>