<?xml version="1.0" encoding="UTF-8"?>
<svg width="48px" height="48px" viewBox="0 0 48 48" version="1.1" xmlns="http://www.w3.org/2000/svg" xmlns:xlink="http://www.w3.org/1999/xlink">
    <!-- Generator: Sketch 44.1 (41455) - http://www.bohemiancoding.com/sketch -->
    <title>Асс. служба</title>
    <desc>Created with Sketch.</desc>
    <defs>
        <circle id="path-1" cx="24" cy="24" r="24"></circle>
    </defs>
    <g id="15.06" stroke="none" stroke-width="1" fill="none" fill-rule="evenodd" opacity="0.5">
        <g id="Чат-(групповой)" transform="translate(-639.000000, -1104.000000)">
            <g id="chating" transform="translate(607.000000, 160.000000)">
                <g id="mess-out" transform="translate(32.000000, 944.000000)">
                    <g id="Асс.-служба">
                        <mask id="mask-2" fill="white">
                            <use xlink:href="#path-1"></use>
                        </mask>
                        <use id="Oval-4" fill="#F5F9FA" xlink:href="#path-1"></use>
                        <g id="translator" mask="url(#mask-2)">
                            <g transform="translate(5.000000, 7.000000)" id="Group-5">
                                <g>
                                    <path d="M34.8370388,31.514617 L26.8835257,29.0983549 C26.4764423,28.9747127 26.2029664,28.6090252 26.2029664,28.1884321 L26.2029664,25.1267158 L26.6661882,24.7456254 C27.4983956,24.0608781 28.050972,23.1020223 28.2221465,22.0459292 L28.3280561,21.3920925 L28.9819788,21.3920925 C30.4518724,21.3920925 31.6476532,20.2114142 31.6476532,18.7600852 L31.6476532,16.9681115 C31.6476532,15.6795082 30.7046546,14.6048688 29.4643026,14.3801125 L30.2918406,9.27327023 C30.667618,6.95414062 29.9980954,4.5992805 28.4546594,2.8122315 C26.9113296,1.02518249 24.6619712,0 22.2833565,0 L15.7165374,0 C13.3378165,0 11.0884581,1.02486815 9.54512831,2.81202193 C8.00179849,4.59907094 7.33216972,6.95414062 7.70794713,9.27306067 L8.53548519,14.3799029 C7.29523932,14.6047641 6.35224071,15.6794034 6.35224071,16.9680067 L6.35224071,18.7599804 C6.35224071,20.2113094 7.54802153,21.3919877 9.01791504,21.3919877 L9.67183778,21.3919877 L9.77774737,22.0458245 C9.94892189,23.1020223 10.5014983,24.0606685 11.3337057,24.7455206 L11.7969275,25.1267158 L11.7969275,28.1883273 C11.7969275,28.6089204 11.5234515,28.9747127 11.1163682,29.0982501 L3.16285512,31.5145122 C1.27112732,32.0894485 0,33.7886906 0,35.7429709 L0,39.3679927 C0,40.8193217 1.19578082,42 2.66567433,42 C9.95043973,42.5804036 15.395215,42.8706055 19,42.8706055 C22.6549153,42.8706055 28.0996905,42.5804036 35.3343257,42 C36.8042192,42 38,40.8193217 38,39.3679927 L38,35.7429709 C38,33.7886906 36.7288727,32.0894485 34.8370388,31.514617 Z M29.9463079,16.9679019 L29.9463079,18.7598757 C29.9463079,19.2848311 29.5137553,19.7119206 28.982085,19.7119206 L28.6003647,19.7119206 L29.1952837,16.0401663 C29.6247588,16.1364605 29.9463079,16.5154553 29.9463079,16.9679019 Z M9.01791504,19.7119206 C8.48624466,19.7119206 8.05369206,19.2848311 8.05369206,18.7598757 L8.05369206,16.9679019 C8.05369206,16.5154553 8.37524122,16.1364605 8.80450403,16.0401663 L9.39952915,19.7119206 L9.01791504,19.7119206 L9.01791504,19.7119206 Z M9.38828024,9.00775383 C9.09124523,7.17512486 9.62036869,5.31420488 10.8399208,3.90195941 C12.059579,2.48981873 13.8370136,1.6798575 15.7166435,1.6798575 L22.2834626,1.6798575 C24.1630925,1.6798575 25.9405271,2.48971395 27.1601853,3.90195941 C28.3797374,5.3141001 28.908967,7.17512486 28.611932,9.00775383 L27.7486309,14.3358947 L27.0285942,14.3358947 C27.0006842,14.3358947 26.9772313,14.3161957 26.972668,14.2890573 L26.3180025,10.4103594 C26.1761176,9.56990674 25.4467422,8.95986867 24.5837594,8.95986867 L13.416665,8.95986867 C12.5536823,8.95986867 11.8243069,9.56990674 11.682422,10.4104642 L11.0277564,14.2890573 C11.0230871,14.3161957 10.9996342,14.3358947 10.9718302,14.3358947 L10.2517936,14.3358947 L9.38828024,9.00775383 Z M11.4578682,21.7804128 L10.5237839,16.0159617 L10.971618,16.0159617 C11.8346007,16.0159617 12.5639761,15.4059236 12.705861,14.5653662 L13.3605266,10.6867731 C13.3651959,10.6596347 13.3886489,10.6399357 13.4164528,10.6399357 L24.5834411,10.6399357 C24.6113511,10.6399357 24.6348041,10.6596347 24.6393673,10.6867731 L25.2940329,14.565471 C25.4359178,15.4059236 26.1652931,16.0159617 27.0282759,16.0159617 L27.47611,16.0159617 L26.8222934,20.0510985 C26.6238456,20.2715588 24.5573351,22.399986 19.0000531,22.399986 C18.5302517,22.399986 18.1492743,22.7760469 18.1492743,23.2400196 C18.1492743,23.7039922 18.5301456,24.0800531 19.0000531,24.0800531 C22.5667018,24.0800531 24.9005331,23.2725018 26.3227779,22.4928225 C26.1511789,22.8615487 25.8976539,23.1911914 25.5770598,23.4550313 L21.9349585,26.451783 C21.5992951,26.7279871 21.1737466,26.8800251 20.7367369,26.8800251 L17.263157,26.8800251 C16.8262534,26.8800251 16.4005988,26.7278824 16.0649354,26.451783 L12.4228341,23.4550313 C11.9068697,23.0301422 11.5639901,22.4354022 11.4578682,21.7804128 Z M11.6167326,30.7041319 C12.7422608,30.3622298 13.498485,29.3512975 13.498485,28.1885369 L13.498485,26.5269114 L14.9757009,27.7424819 C15.6165706,28.2697426 16.4290394,28.560197 17.263157,28.560197 L20.7367369,28.560197 C21.5709606,28.560197 22.3833232,28.2697426 23.024193,27.7424819 L24.5014089,26.5268066 L24.5014089,28.1884321 C24.5014089,29.3511928 25.2576331,30.362125 26.3831613,30.7040271 L26.8126363,30.8344801 C23.7964416,35.4035835 19.7873709,36.5348049 18.9979306,36.717963 C18.2006373,36.5374245 14.2139584,35.4275785 11.1869392,30.8345849 L11.6167326,30.7041319 Z M6.35224071,40.3200377 L2.66567433,40.3200377 C2.13400395,40.3200377 1.70145136,39.8929482 1.70145136,39.3679927 L1.70145136,35.7429709 C1.70145136,35.2675771 1.82423432,34.8174356 2.04231468,34.4231427 L5.67879155,37.4151794 C6.10678091,37.7673501 6.35224071,38.2848661 6.35224071,38.8348643 L6.35224071,40.3200377 Z M29.9463079,38.8349691 L29.9463079,40.3199329 C24.9775137,40.8270219 21.2820684,41.0805664 18.8599722,41.0805664 C16.437876,41.0805664 12.8357826,40.8270219 8.05369206,40.3199329 L8.05369206,38.8349691 C8.05369206,37.7847438 7.58505805,36.7968635 6.76802605,36.12469 L3.29126254,33.2639447 C3.41043736,33.2085152 3.53417542,33.1594775 3.66321957,33.1202892 L9.50066326,31.3469666 C13.2776454,37.420628 18.6278838,38.3663861 18.8599722,38.4045266 C18.9062414,38.4121756 18.952935,38.4159477 18.9998408,38.4159477 C19.0467467,38.4159477 19.0934403,38.4121756 19.1397094,38.4045266 C19.3717978,38.3662813 24.7222484,37.420628 28.4990184,31.3469666 L34.3364621,33.120394 C34.4655062,33.1595823 34.5891382,33.20862 34.7084191,33.2640495 L31.2318678,36.1247948 C30.414942,36.7969683 29.9463079,37.7847438 29.9463079,38.8349691 Z M36.2985486,39.3679927 C36.2985486,39.8929482 35.8659961,40.3200377 35.3343257,40.3200377 L31.6477593,40.3200377 L31.6477593,38.8350739 C31.6477593,38.2849708 31.8932191,37.7674549 32.3212084,37.4153889 L35.9576853,34.4233523 C36.1757657,34.8175404 36.2985486,35.2676819 36.2985486,35.7431805 L36.2985486,39.3679927 Z" id="Shape" fill="#344758" fill-rule="nonzero"></path>
                                </g>
                            </g>
                        </g>
                    </g>
                </g>
            </g>
        </g>
    </g>
</svg>